{
  "variables": {
    "chroot": "/mnt/gentoo",
    "locale": "ru_RU.UTF-8 UTF-8",
    "useflagsno": "-systemd -pulseaudio -handbook -bindist -X",
    "hostname": "build",
    "useflagsyes": "mmx sse sse2",
    "ssh_pkey_os_user": "",
    "fs_tupe": "ext4",
    "headless": "true",
    "hdd": "/dev/sda",
    "os_user": "builder",
    "architecture": "amd64",
    "timezone": "Europe/Moscow",
    "stamp": "{{isotime \"20060102\"}}"
  },
  "provisioners": [
    {
      "type": "shell",
      "environment_vars": [
        "http_proxy={{user `http_proxy`}}",
        "https_proxy={{user `https_proxy`}}",
        "no_proxy={{user `no_proxy`}}",
        "VERBOSE={{user `verbose`}}",
        "architecture={{user `architecture`}}",
        "timezone={{user `timezone`}}",
        "locale={{user `locale`}}",
        "chroot={{user `chroot`}}",
        "hdd={{user `hdd`}}",
        "hostname={{user `hostname`}}",
        "useflagsyes={{user `useflagsyes`}}",
        "useflagsno={{user `useflagsno`}}",
        "os_user={{user `os_user`}}",
        "ssh_pkey_os_user={{user `ssh_pkey_os_user`}}",
        "fs_tupe={{user `fs_tupe`}}"
      ],
      "scripts": [
        "scripts/parted.sh",
        "scripts/stage.sh",
        "scripts/chroot.sh",
        "scripts/setting.sh",
        "scripts/update.sh",
        "scripts/git_portage.sh",
        "scripts/kernel.sh",
        "scripts/firewall.sh",
        "scripts/grub.sh",
        "scripts/cleaning.sh"
      ]
    }
  ],
  "builders": [
    {
      "vm_name": "gentoo-hardened-x86-64-{{user `stamp`}}",
      "iso_url": "http://ftp.otenet.gr/linux/SystemRescueCd/systemrescuecd-x86-4.7.3.iso",
      "ssh_password": 123456,
      "accelerator": "kvm",
      "format": "raw",
      "ssh_username": "root",
      "headless": "{{user `headless`}}",
      "qemuargs": [
        [
          "-m",
          "4096M"
        ]
      ],
      "shutdown_command": "shutdown -h now",
      "boot_command": [
        "<enter><wait10><wait10>",
        "<enter><wait10><wait10>",
        "passwd<enter><wait><wait><wait>",
        "123456<enter><wait>123456<enter><wait>123456<enter>"
      ],
      "iso_checksum_type": "sha256",
      "disk_compression": true,
      "output_directory": "builds/{{build_name}}-{{user `stamp`}}",
      "disk_size": 5000,
      "name": "gentoo_hardened_x86_64-qemu",
      "iso_checksum": "f3a30a11ade9c5dd631522a9bfad4b2d5b7e5b14d9ba65ec94d1cf441635bc7a",
      "boot_wait": "5s",
      "disk_discard": "unmap",
      "disk_interface": "virtio-scsi",
      "disk_cache": "unsafe",
      "ssh_wait_timeout": "15s",
      "type": "qemu"
    }
  ]
}
